{
  "minifier": {
    "name": "standard-minifier-js",
    "version": "2.6.0"
  },
  "totalMinifiedBytes": 1021984,
  "totalMinifiedGzipBytes": 295527,
  "minifiedBytesByPackage": {
    "packages/meteor.js": 9504,
    "packages/meteor-base.js": 31,
    "packages/mobile-experience.js": 37,
    "packages/modules-runtime.js": 4510,
    "packages/modules.js": [
      119806,
      {
        "node_modules": {
          "meteor": {
            "modules": {
              "client.js": 126,
              "legacy.js": 42,
              "css.js": 263,
              "install-packages.js": 2622,
              "process.js": 349,
              "reify.js": 73,
              "stubs.js": 99,
              "node_modules": {
                "reify": {
                  "lib": {
                    "runtime": {
                      "index.js": 911,
                      "utils.js": 1222,
                      "entry.js": 3047
                    }
                  }
                },
                "meteor-babel-helpers": {
                  "package.json": 90,
                  "index.js": 391
                }
              }
            }
          },
          "meteor-node-stubs": {
            "package.json": 87,
            "index.js": 358,
            "map.json": 1008,
            "deps": {
              "process.js": 38
            },
            "node_modules": {
              "process": {
                "browser.js": 1688
              }
            }
          },
          "@babel": {
            "runtime": {
              "package.json": 11380,
              "helpers": {
                "slicedToArray.js": 198,
                "arrayWithHoles.js": 73,
                "iterableToArrayLimit.js": 330,
                "unsupportedIterableToArray.js": 346,
                "arrayLikeToArray.js": 136,
                "nonIterableRest.js": 204,
                "typeof.js": 285,
                "createSuper.js": 300,
                "getPrototypeOf.js": 172,
                "isNativeReflectConstruct.js": 280,
                "possibleConstructorReturn.js": 173,
                "assertThisInitialized.js": 153,
                "inheritsLoose.js": 125,
                "toConsumableArray.js": 192,
                "arrayWithoutHoles.js": 106,
                "iterableToArray.js": 125,
                "nonIterableSpread.js": 199,
                "objectSpread2.js": 633,
                "defineProperty.js": 150,
                "createClass.js": 253
              }
            }
          },
          "jquery": {
            "package.json": 82,
            "dist": {
              "jquery.js": 90148
            }
          }
        }
      }
    ],
    "packages/modern-browsers.js": 35,
    "packages/babel-compiler.js": 34,
    "packages/ecmascript.js": 30,
    "packages/ecmascript-runtime.js": 38,
    "packages/babel-runtime.js": [
      984,
      {
        "node_modules": {
          "meteor": {
            "babel-runtime": {
              "babel-runtime.js": 631
            }
          }
        }
      }
    ],
    "packages/promise.js": [
      5677,
      {
        "node_modules": {
          "meteor": {
            "promise": {
              "modern.js": 25,
              "legacy.js": 97,
              "client.js": 73,
              "extensions.js": 403,
              "node_modules": {
                "promise": {
                  "lib": {
                    "es6-extensions.js": 1227,
                    "core.js": 1838
                  }
                },
                "asap": {
                  "package.json": 249,
                  "raw.js": 63,
                  "browser-raw.js": 673
                },
                "meteor-promise": {
                  "package.json": 121,
                  "promise_client.js": 268
                }
              }
            }
          }
        }
      }
    ],
    "packages/fetch.js": [
      7902,
      {
        "node_modules": {
          "meteor": {
            "fetch": {
              "legacy.js": 112,
              "node_modules": {
                "whatwg-fetch": {
                  "package.json": 82,
                  "fetch.js": 7297
                }
              }
            }
          }
        }
      }
    ],
    "packages/dynamic-import.js": [
      4678,
      {
        "node_modules": {
          "meteor": {
            "dynamic-import": {
              "client.js": 1574,
              "cache.js": 1952,
              "common.js": 62,
              "dynamic-versions.js": 652
            }
          }
        }
      }
    ],
    "packages/es5-shim.js": [
      28488,
      {
        "node_modules": {
          "meteor": {
            "es5-shim": {
              "client.js": 134,
              "console.js": 291,
              "export_globals.js": 154,
              "import_globals.js": 77,
              "node_modules": {
                "es5-shim": {
                  "es5-shim.js": 22551,
                  "es5-sham.js": 4835
                }
              }
            }
          }
        }
      }
    ],
    "packages/ecmascript-runtime-client.js": [
      110668,
      {
        "node_modules": {
          "meteor": {
            "ecmascript-runtime-client": {
              "modern.js": 766,
              "legacy.js": 1059,
              "node_modules": {
                "core-js": {
                  "es": {
                    "symbol": {
                      "index.js": 814
                    },
                    "map": {
                      "index.js": 217
                    },
                    "set": {
                      "index.js": 217
                    },
                    "array": {
                      "index.js": 1158
                    },
                    "function": {
                      "index.js": 187
                    },
                    "math": {
                      "index.js": 663
                    },
                    "object": {
                      "index.js": 1234
                    },
                    "regexp": {
                      "index.js": 306
                    },
                    "string": {
                      "index.js": 1210
                    },
                    "weak-map": {
                      "index.js": 188
                    },
                    "weak-set": {
                      "index.js": 188
                    }
                  },
                  "modules": {
                    "es.array.concat.js": 946,
                    "es.object.to-string.js": 149,
                    "es.symbol.js": 4562,
                    "es.symbol.async-iterator.js": 80,
                    "es.symbol.description.js": 890,
                    "es.symbol.has-instance.js": 78,
                    "es.symbol.is-concat-spreadable.js": 85,
                    "es.symbol.iterator.js": 75,
                    "es.symbol.match.js": 72,
                    "es.symbol.match-all.js": 75,
                    "es.symbol.replace.js": 74,
                    "es.symbol.search.js": 73,
                    "es.symbol.species.js": 74,
                    "es.symbol.split.js": 72,
                    "es.symbol.to-primitive.js": 78,
                    "es.symbol.to-string-tag.js": 78,
                    "es.symbol.unscopables.js": 78,
                    "es.math.to-string-tag.js": 72,
                    "es.json.to-string-tag.js": 101,
                    "es.map.js": 216,
                    "es.string.iterator.js": 409,
                    "web.dom-collections.iterator.js": 406,
                    "es.array.iterator.js": 618,
                    "es.set.js": 213,
                    "es.array.from.js": 204,
                    "es.array.is-array.js": 110,
                    "es.array.of.js": 368,
                    "es.array.copy-within.js": 182,
                    "es.array.every.js": 264,
                    "es.array.fill.js": 163,
                    "es.array.filter.js": 281,
                    "es.array.find.js": 315,
                    "es.array.find-index.js": 335,
                    "es.array.flat.js": 404,
                    "es.array.flat-map.js": 401,
                    "es.array.for-each.js": 155,
                    "es.array.includes.js": 266,
                    "es.array.index-of.js": 349,
                    "es.array.join.js": 312,
                    "es.array.last-index-of.js": 156,
                    "es.array.map.js": 272,
                    "es.array.reduce.js": 279,
                    "es.array.reduce-right.js": 290,
                    "es.array.reverse.js": 255,
                    "es.array.slice.js": 780,
                    "es.array.some.js": 261,
                    "es.array.sort.js": 407,
                    "es.array.species.js": 59,
                    "es.array.splice.js": 936,
                    "es.array.unscopables.flat.js": 69,
                    "es.array.unscopables.flat-map.js": 72,
                    "es.function.bind.js": 116,
                    "es.function.name.js": 272,
                    "es.function.has-instance.js": 405,
                    "es.math.acosh.js": 303,
                    "es.math.asinh.js": 209,
                    "es.math.atanh.js": 178,
                    "es.math.cbrt.js": 173,
                    "es.math.clz32.js": 166,
                    "es.math.cosh.js": 225,
                    "es.math.expm1.js": 134,
                    "es.math.fround.js": 111,
                    "es.math.hypot.js": 303,
                    "es.math.imul.js": 298,
                    "es.math.log10.js": 134,
                    "es.math.log1p.js": 109,
                    "es.math.log2.js": 130,
                    "es.math.sign.js": 107,
                    "es.math.sinh.js": 295,
                    "es.math.tanh.js": 203,
                    "es.math.trunc.js": 139,
                    "es.object.assign.js": 144,
                    "es.object.create.js": 153,
                    "es.object.define-property.js": 186,
                    "es.object.define-properties.js": 188,
                    "es.object.entries.js": 155,
                    "es.object.freeze.js": 310,
                    "es.object.from-entries.js": 226,
                    "es.object.get-own-property-descriptor.js": 335,
                    "es.object.get-own-property-descriptors.js": 414,
                    "es.object.get-own-property-names.js": 248,
                    "es.object.get-prototype-of.js": 305,
                    "es.object.is.js": 108,
                    "es.object.is-extensible.js": 238,
                    "es.object.is-frozen.js": 228,
                    "es.object.is-sealed.js": 228,
                    "es.object.keys.js": 228,
                    "es.object.prevent-extensions.js": 332,
                    "es.object.seal.js": 306,
                    "es.object.set-prototype-of.js": 133,
                    "es.object.values.js": 153,
                    "es.object.define-getter.js": 390,
                    "es.object.define-setter.js": 390,
                    "es.object.lookup-getter.js": 460,
                    "es.object.lookup-setter.js": 460,
                    "es.regexp.constructor.js": 979,
                    "es.regexp.to-string.js": 457,
                    "es.regexp.exec.js": 149,
                    "es.regexp.flags.js": 200,
                    "es.string.match.js": 694,
                    "es.string.replace.js": 1659,
                    "es.string.search.js": 577,
                    "es.string.split.js": 2089,
                    "es.string.from-code-point.js": 423,
                    "es.string.raw.js": 304,
                    "es.string.code-point-at.js": 178,
                    "es.string.ends-with.js": 485,
                    "es.string.includes.js": 334,
                    "es.string.match-all.js": 1673,
                    "es.string.pad-end.js": 252,
                    "es.string.pad-start.js": 256,
                    "es.string.repeat.js": 116,
                    "es.string.starts-with.js": 467,
                    "es.string.trim.js": 222,
                    "es.string.trim-start.js": 267,
                    "es.string.trim-end.js": 260,
                    "es.string.anchor.js": 235,
                    "es.string.big.js": 227,
                    "es.string.blink.js": 233,
                    "es.string.bold.js": 227,
                    "es.string.fixed.js": 230,
                    "es.string.fontcolor.js": 245,
                    "es.string.fontsize.js": 242,
                    "es.string.italics.js": 233,
                    "es.string.link.js": 231,
                    "es.string.small.js": 233,
                    "es.string.strike.js": 236,
                    "es.string.sub.js": 227,
                    "es.string.sup.js": 227,
                    "es.weak-map.js": 1206,
                    "es.weak-set.js": 203,
                    "es.number.epsilon.js": 98,
                    "es.number.is-finite.js": 120,
                    "es.number.is-integer.js": 115,
                    "es.number.is-nan.js": 107,
                    "es.number.is-safe-integer.js": 183,
                    "es.number.max-safe-integer.js": 108,
                    "es.number.min-safe-integer.js": 109,
                    "es.number.parse-float.js": 149,
                    "es.number.parse-int.js": 143,
                    "es.typed-array.uint8-array.js": 135,
                    "es.typed-array.uint32-array.js": 136
                  },
                  "internals": {
                    "export.js": 586,
                    "global.js": 220,
                    "object-get-own-property-descriptor.js": 428,
                    "descriptors.js": 145,
                    "fails.js": 76,
                    "object-property-is-enumerable.js": 178,
                    "create-property-descriptor.js": 113,
                    "to-indexed-object.js": 140,
                    "indexed-object.js": 225,
                    "classof-raw.js": 88,
                    "require-object-coercible.js": 104,
                    "to-primitive.js": 354,
                    "is-object.js": 96,
                    "has.js": 86,
                    "ie8-dom-define.js": 231,
                    "document-create-element.js": 173,
                    "hide.js": 229,
                    "object-define-property.js": 359,
                    "an-object.js": 140,
                    "redefine.js": 724,
                    "shared.js": 322,
                    "set-global.js": 137,
                    "is-pure.js": 31,
                    "function-to-string.js": 108,
                    "internal-state.js": 757,
                    "native-weak-map.js": 162,
                    "shared-key.js": 133,
                    "uid.js": 131,
                    "hidden-keys.js": 31,
                    "copy-constructor-properties.js": 279,
                    "own-keys.js": 284,
                    "get-built-in.js": 222,
                    "path.js": 53,
                    "object-get-own-property-names.js": 187,
                    "object-keys-internal.js": 306,
                    "array-includes.js": 363,
                    "to-length.js": 125,
                    "to-integer.js": 104,
                    "to-absolute-index.js": 138,
                    "enum-bug-keys.js": 138,
                    "object-get-own-property-symbols.js": 49,
                    "is-forced.js": 279,
                    "is-array.js": 114,
                    "to-object.js": 110,
                    "create-property.js": 226,
                    "array-species-create.js": 320,
                    "well-known-symbol.js": 229,
                    "native-symbol.js": 127,
                    "array-method-has-species-support.js": 233,
                    "object-to-string.js": 219,
                    "classof.js": 389,
                    "object-create.js": 739,
                    "object-define-properties.js": 284,
                    "object-keys.js": 149,
                    "html.js": 97,
                    "object-get-own-property-names-external.js": 363,
                    "wrapped-well-known-symbol.js": 56,
                    "define-well-known-symbol.js": 245,
                    "set-to-string-tag.js": 234,
                    "array-iteration.js": 655,
                    "bind-context.js": 358,
                    "a-function.js": 122,
                    "collection.js": 1452,
                    "internal-metadata.js": 701,
                    "freezing.js": 133,
                    "iterate.js": 710,
                    "is-array-iterator-method.js": 190,
                    "iterators.js": 31,
                    "get-iterator-method.js": 204,
                    "call-with-safe-iteration-closing.js": 173,
                    "an-instance.js": 131,
                    "check-correctness-of-iteration.js": 380,
                    "inherit-if-required.js": 229,
                    "object-set-prototype-of.js": 368,
                    "a-possible-prototype.js": 161,
                    "collection-strong.js": 2303,
                    "redefine-all.js": 116,
                    "define-iterator.js": 1343,
                    "create-iterator-constructor.js": 370,
                    "iterators-core.js": 416,
                    "object-get-prototype-of.js": 372,
                    "correct-prototype-getter.js": 169,
                    "set-species.js": 302,
                    "string-multibyte.js": 386,
                    "dom-iterables.js": 530,
                    "add-to-unscopables.js": 217,
                    "array-from.js": 687,
                    "array-copy-within.js": 403,
                    "sloppy-array-method.js": 164,
                    "array-fill.js": 311,
                    "flatten-into-array.js": 390,
                    "array-for-each.js": 224,
                    "array-last-index-of.js": 471,
                    "array-reduce.js": 462,
                    "function-bind.js": 487,
                    "math-log1p.js": 112,
                    "math-sign.js": 88,
                    "math-expm1.js": 197,
                    "math-fround.js": 287,
                    "object-assign.js": 677,
                    "object-to-array.js": 358,
                    "same-value.js": 96,
                    "forced-object-prototype-accessors-methods.js": 224,
                    "is-regexp.js": 214,
                    "regexp-flags.js": 237,
                    "regexp-exec.js": 548,
                    "fix-regexp-well-known-symbol-logic.js": 1117,
                    "advance-string-index.js": 135,
                    "regexp-exec-abstract.js": 363,
                    "species-constructor.js": 228,
                    "not-a-regexp.js": 157,
                    "correct-is-regexp-logic.js": 180,
                    "string-pad.js": 378,
                    "string-repeat.js": 291,
                    "webkit-string-pad-bug.js": 122,
                    "user-agent.js": 96,
                    "string-trim.js": 305,
                    "whitespaces.js": 107,
                    "forced-string-trim-method.js": 181,
                    "create-html.js": 213,
                    "forced-string-html-method.js": 162,
                    "collection-weak.js": 1480,
                    "number-is-finite.js": 133,
                    "is-integer.js": 125,
                    "parse-float.js": 244,
                    "parse-int.js": 268,
                    "typed-array-constructor.js": 3084,
                    "typed-arrays-constructors-requires-wrappers.js": 413,
                    "array-buffer-view-core.js": 2095,
                    "array-buffer.js": 4367,
                    "to-index.js": 207,
                    "to-offset.js": 143,
                    "typed-array-from.js": 563
                  }
                }
              }
            }
          }
        }
      }
    ],
    "packages/base64.js": [
      2002,
      {
        "node_modules": {
          "meteor": {
            "base64": {
              "base64.js": 1510
            }
          }
        }
      }
    ],
    "packages/ejson.js": [
      8073,
      {
        "node_modules": {
          "meteor": {
            "ejson": {
              "ejson.js": 5357,
              "stringify.js": 974,
              "utils.js": 1209
            }
          }
        }
      }
    ],
    "packages/diff-sequence.js": [
      3087,
      {
        "node_modules": {
          "meteor": {
            "diff-sequence": {
              "diff.js": 2548
            }
          }
        }
      }
    ],
    "packages/geojson-utils.js": [
      5218,
      {
        "node_modules": {
          "meteor": {
            "geojson-utils": {
              "main.js": 50,
              "geojson-utils.js": 4794
            }
          }
        }
      }
    ],
    "packages/id-map.js": [
      1828,
      {
        "node_modules": {
          "meteor": {
            "id-map": {
              "id-map.js": 1318
            }
          }
        }
      }
    ],
    "packages/random.js": [
      4854,
      {
        "node_modules": {
          "meteor": {
            "random": {
              "main_client.js": 345,
              "AbstractRandomGenerator.js": 928,
              "AleaRandomGenerator.js": 1312,
              "BrowserRandomGenerator.js": 535,
              "createAleaGenerator.js": 691,
              "createRandom.js": 411
            }
          }
        }
      }
    ],
    "packages/mongo-id.js": [
      2347,
      {
        "node_modules": {
          "meteor": {
            "mongo-id": {
              "id.js": 1782
            }
          }
        }
      }
    ],
    "packages/ordered-dict.js": [
      3974,
      {
        "node_modules": {
          "meteor": {
            "ordered-dict": {
              "ordered_dict.js": 3445
            }
          }
        }
      }
    ],
    "packages/tracker.js": [
      5257,
      {
        "node_modules": {
          "meteor": {
            "tracker": {
              "tracker.js": 4759
            }
          }
        }
      }
    ],
    "packages/minimongo.js": [
      48007,
      {
        "node_modules": {
          "meteor": {
            "minimongo": {
              "minimongo_client.js": 50,
              "common.js": 13450,
              "cursor.js": 5139,
              "local_collection.js": 21271,
              "matcher.js": 3099,
              "minimongo_common.js": 237,
              "observe_handle.js": 102,
              "sorter.js": 3699
            }
          }
        }
      }
    ],
    "packages/check.js": [
      6641,
      {
        "node_modules": {
          "meteor": {
            "check": {
              "match.js": 5779,
              "isPlainObject.js": 329
            }
          }
        }
      }
    ],
    "packages/retry.js": [
      1477,
      {
        "node_modules": {
          "meteor": {
            "retry": {
              "retry.js": 972
            }
          }
        }
      }
    ],
    "packages/callback-hook.js": [
      1782,
      {
        "node_modules": {
          "meteor": {
            "callback-hook": {
              "hook.js": 1278
            }
          }
        }
      }
    ],
    "packages/ddp-common.js": [
      5498,
      {
        "node_modules": {
          "meteor": {
            "ddp-common": {
              "namespace.js": 18,
              "heartbeat.js": 1693,
              "utils.js": 1548,
              "method_invocation.js": 589,
              "random_stream.js": 701
            }
          }
        }
      }
    ],
    "packages/reload.js": [
      2189,
      {
        "node_modules": {
          "meteor": {
            "reload": {
              "reload.js": 1697
            }
          }
        }
      }
    ],
    "packages/socket-stream-client.js": [
      38408,
      {
        "node_modules": {
          "meteor": {
            "socket-stream-client": {
              "sockjs-0.3.4.js": 30572,
              "browser.js": 3603,
              "common.js": 2902,
              "urls.js": 743
            }
          }
        }
      }
    ],
    "packages/ddp-client.js": [
      25710,
      {
        "node_modules": {
          "meteor": {
            "ddp-client": {
              "client": {
                "client.js": 136,
                "client_convenience.js": 920
              },
              "common": {
                "MethodInvoker.js": 1381,
                "livedata_connection.js": 21248,
                "namespace.js": 1068
              }
            }
          }
        }
      }
    ],
    "packages/ddp.js": 78,
    "packages/ddp-server.js": 30,
    "packages/allow-deny.js": [
      6161,
      {
        "node_modules": {
          "meteor": {
            "allow-deny": {
              "allow-deny.js": 5493
            }
          }
        }
      }
    ],
    "packages/insecure.js": 28,
    "packages/mongo.js": [
      9399,
      {
        "node_modules": {
          "meteor": {
            "mongo": {
              "local_collection_driver.js": 440,
              "collection.js": 8044
            }
          }
        }
      }
    ],
    "packages/blaze-html-templates.js": 40,
    "packages/reactive-var.js": 818,
    "packages/standard-minifier-css.js": 41,
    "packages/standard-minifier-js.js": 40,
    "packages/typescript.js": 30,
    "packages/shell-server.js": 32,
    "packages/autopublish.js": 31,
    "packages/reactive-dict.js": [
      4672,
      {
        "node_modules": {
          "meteor": {
            "reactive-dict": {
              "migration.js": 821,
              "reactive-dict.js": 3233
            }
          }
        }
      }
    ],
    "packages/session.js": [
      713,
      {
        "node_modules": {
          "meteor": {
            "session": {
              "session.js": 153
            }
          }
        }
      }
    ],
    "packages/underscore.js": 14427,
    "packages/deps.js": 111,
    "packages/jquery.js": [
      98087,
      {
        "node_modules": {
          "meteor": {
            "jquery": {
              "main.js": 136,
              "jquery.js": 97602
            }
          }
        }
      }
    ],
    "packages/observe-sequence.js": 2935,
    "packages/htmljs.js": 10030,
    "packages/blaze.js": [
      40508,
      {
        "node_modules": {
          "meteor": {
            "blaze": {
              "preamble.js": 505,
              "dombackend.js": 1766,
              "domrange.js": 6005,
              "events.js": 1960,
              "attrs.js": 4104,
              "materializer.js": 2142,
              "exceptions.js": 481,
              "view.js": 10098,
              "builtins.js": 3896,
              "lookup.js": 2522,
              "template.js": 5365,
              "backcompat.js": 246
            }
          }
        }
      }
    ],
    "packages/ui.js": 137,
    "packages/spacebars.js": 2950,
    "packages/templating-compiler.js": 39,
    "packages/templating-runtime.js": 3095,
    "packages/templating.js": 103,
    "packages/iron_core.js": 3519,
    "packages/iron_dynamic-template.js": 8538,
    "packages/iron_layout.js": 5426,
    "packages/iron_url.js": 5434,
    "packages/iron_middleware-stack.js": 4271,
    "packages/iron_location.js": 3750,
    "packages/iron_controller.js": 3855,
    "packages/iron_router.js": 19929,
    "packages/ddp-rate-limiter.js": 36,
    "packages/localstorage.js": 837,
    "packages/accounts-base.js": [
      15143,
      {
        "node_modules": {
          "meteor": {
            "accounts-base": {
              "client_main.js": 302,
              "accounts_client.js": 9447,
              "accounts_common.js": 4635
            }
          }
        }
      }
    ],
    "packages/service-configuration.js": 711,
    "packages/sha.js": 2521,
    "packages/srp.js": [
      19519,
      {
        "node_modules": {
          "meteor": {
            "srp": {
              "srp.js": 1322,
              "biginteger.js": 17620
            }
          }
        }
      }
    ],
    "packages/accounts-password.js": [
      3075,
      {
        "node_modules": {
          "meteor": {
            "accounts-password": {
              "password_client.js": 2427
            }
          }
        }
      }
    ],
    "packages/less.js": 24,
    "packages/accounts-ui-unstyled.js": [
      45564,
      {
        "node_modules": {
          "meteor": {
            "accounts-ui-unstyled": {
              "accounts_ui.js": 2305,
              "template.login_buttons.js": 4119,
              "template.login_buttons_single.js": 2295,
              "template.login_buttons_dropdown.js": 8654,
              "template.login_buttons_dialogs.js": 8274,
              "login_buttons_session.js": 1595,
              "login_buttons.js": 1993,
              "login_buttons_single.js": 1580,
              "login_buttons_dropdown.js": 8357,
              "login_buttons_dialogs.js": 4580
            }
          }
        }
      }
    ],
    "packages/accounts-ui.js": 31,
    "packages/momentjs_moment.js": 60790,
    "packages/url.js": [
      41906,
      {
        "node_modules": {
          "meteor": {
            "url": {
              "modern.js": 110,
              "legacy.js": 273,
              "bc": {
                "url_client.js": 172,
                "url_common.js": 569
              },
              "node_modules": {
                "core-js": {
                  "proposals": {
                    "url.js": 108
                  },
                  "modules": {
                    "web.url.js": 11672,
                    "es.string.iterator.js": 409,
                    "web.url-search-params.js": 4552,
                    "es.array.iterator.js": 618,
                    "web.url.to-json.js": 159
                  },
                  "internals": {
                    "string-multibyte.js": 386,
                    "to-integer.js": 104,
                    "require-object-coercible.js": 104,
                    "internal-state.js": 783,
                    "native-weak-map.js": 153,
                    "global.js": 237,
                    "inspect-source.js": 185,
                    "shared-store.js": 131,
                    "set-global.js": 163,
                    "create-non-enumerable-property.js": 229,
                    "descriptors.js": 145,
                    "fails.js": 76,
                    "object-define-property.js": 359,
                    "ie8-dom-define.js": 231,
                    "document-create-element.js": 173,
                    "is-object.js": 96,
                    "an-object.js": 140,
                    "to-primitive.js": 354,
                    "create-property-descriptor.js": 113,
                    "has.js": 86,
                    "shared-key.js": 133,
                    "shared.js": 258,
                    "is-pure.js": 31,
                    "uid.js": 131,
                    "hidden-keys.js": 31,
                    "define-iterator.js": 1369,
                    "export.js": 612,
                    "object-get-own-property-descriptor.js": 428,
                    "object-property-is-enumerable.js": 178,
                    "to-indexed-object.js": 140,
                    "indexed-object.js": 225,
                    "classof-raw.js": 88,
                    "redefine.js": 666,
                    "copy-constructor-properties.js": 279,
                    "own-keys.js": 284,
                    "get-built-in.js": 222,
                    "path.js": 61,
                    "object-get-own-property-names.js": 187,
                    "object-keys-internal.js": 306,
                    "array-includes.js": 363,
                    "to-length.js": 125,
                    "to-absolute-index.js": 138,
                    "enum-bug-keys.js": 138,
                    "object-get-own-property-symbols.js": 49,
                    "is-forced.js": 279,
                    "create-iterator-constructor.js": 370,
                    "iterators-core.js": 442,
                    "object-get-prototype-of.js": 372,
                    "to-object.js": 110,
                    "correct-prototype-getter.js": 169,
                    "well-known-symbol.js": 311,
                    "native-symbol.js": 132,
                    "use-symbol-as-uid.js": 109,
                    "object-create.js": 739,
                    "object-define-properties.js": 284,
                    "object-keys.js": 149,
                    "html.js": 97,
                    "set-to-string-tag.js": 234,
                    "iterators.js": 31,
                    "object-set-prototype-of.js": 368,
                    "a-possible-prototype.js": 161,
                    "native-url.js": 615,
                    "an-instance.js": 131,
                    "object-assign.js": 823,
                    "array-from.js": 699,
                    "bind-context.js": 358,
                    "a-function.js": 122,
                    "call-with-safe-iteration-closing.js": 173,
                    "is-array-iterator-method.js": 190,
                    "create-property.js": 226,
                    "get-iterator-method.js": 204,
                    "classof.js": 435,
                    "to-string-tag-support.js": 124,
                    "punycode-to-ascii.js": 1273,
                    "add-to-unscopables.js": 243,
                    "redefine-all.js": 116,
                    "get-iterator.js": 216
                  }
                }
              }
            }
          }
        }
      }
    ],
    "packages/http.js": [
      3465,
      {
        "node_modules": {
          "meteor": {
            "http": {
              "httpcall_client.js": 2122,
              "httpcall_common.js": 934
            }
          }
        }
      }
    ],
    "packages/ostrio_base64.js": [
      8201,
      {
        "node_modules": {
          "meteor": {
            "ostrio:base64": {
              "base64.js": 4845,
              "worker-create.js": 2839
            }
          }
        }
      }
    ],
    "packages/bigdsk_inputmask.js": 72282,
    "packages/meteorhacks_async.js": 169,
    "packages/typ_accounts-ldap.js": 714,
    "packages/webapp.js": [
      884,
      {
        "node_modules": {
          "meteor": {
            "webapp": {
              "webapp_client.js": 378
            }
          }
        }
      }
    ],
    "packages/livedata.js": 105,
    "packages/hot-code-push.js": 33,
    "packages/launch-screen.js": 795,
    "packages/autoupdate.js": [
      4092,
      {
        "node_modules": {
          "meteor": {
            "autoupdate": {
              "autoupdate_client.js": 1951,
              "client_versions.js": 1490
            }
          }
        }
      }
    ],
    "app/global-imports.js": [
      1313,
      {}
    ],
    "app/app.js": [
      31565,
      {
        "client": {
          "html": {
            "body.html": 58,
            "template.body.js": 1595,
            "login.html": 59,
            "template.login.js": 8830,
            "perfil.html": 60,
            "template.perfil.js": 4815,
            "work.html": 58,
            "template.work.js": 2101,
            "worklogger.html": 64,
            "template.worklogger.js": 1805
          },
          "js": {
            "account-config.js": 85,
            "body.js": 1454,
            "login.js": 3469,
            "perfil.js": 957,
            "work.js": 2487,
            "worklogger.js": 1684
          },
          "main.js": 209
        },
        "lib": {
          "collections": {
            "tabela.js": 241,
            "userBase.js": 247,
            "works.js": 238
          },
          "routes": {
            "routes.js": 546
          }
        }
      }
    ]
  }
}
