{
  "format": "web-program-pre1",
  "manifest": [
    {
      "path": "6551018f6e32d354693f844df41204505b0ed931.js",
      "where": "client",
      "type": "js",
      "cacheable": true,
      "url": "/6551018f6e32d354693f844df41204505b0ed931.js?meteor_js_resource=true",
      "size": 1021984,
      "hash": "6551018f6e32d354693f844df41204505b0ed931",
      "sri": "Hv88CnEB+4Sdqu7Z5G1Zws+iAr/fWPvJ/Mw5gFViB0RmSghGiEra5MeiO959+0lXppOoPVLtZ1NIziG7NN7afA=="
    },
    {
      "path": "6551018f6e32d354693f844df41204505b0ed931.stats.json",
      "where": "client",
      "type": "json",
      "cacheable": true,
      "url": "/6551018f6e32d354693f844df41204505b0ed931.stats.json?meteor_js_resource=true",
      "size": 35873,
      "hash": "9a56fb3448178f6c84f198ecffc08948f953d333",
      "sri": "aK0vk/9Dq9hZjpWDZI78BAHbvQeNsjY9bwmLKW4E0hs2piLyNnNGPcxVNdiFrjHn65+s7x1ELOPFCxwttRGTJw=="
    },
    {
      "path": "faad3c1cb3f58a146a4893cf1d0924d1bf1e6e71.css",
      "where": "client",
      "type": "css",
      "cacheable": true,
      "url": "/faad3c1cb3f58a146a4893cf1d0924d1bf1e6e71.css?meteor_css_resource=true",
      "size": 7870,
      "hash": "faad3c1cb3f58a146a4893cf1d0924d1bf1e6e71",
      "sri": "NcrbZOWgsr6DPhxSUa9J252+KThy9CXLOrNTILsJwEcbSXicc7qBIE7uZwlHGeRzJx2qlhuGtgmoXA/UIEmSMA=="
    },
    {
      "path": "packages/ostrio_base64/worker.min.js",
      "where": "client",
      "type": "asset",
      "cacheable": false,
      "url": "/packages/ostrio_base64/worker.min.js",
      "size": 1863,
      "hash": "12aae688f1f44664dd546c62e956f8186de88fac",
      "sri": "YBhN7PEcl0e72RtRzJ1xKVmF6MQn9UT/+DP8y2q6Azhwsn4SryVA7eaipY3q0IyT1yhDKDG22TxMm+EQecojnw=="
    },
    {
      "path": "app/ApiToken.webm",
      "where": "client",
      "type": "asset",
      "cacheable": false,
      "url": "/ApiToken.webm",
      "size": 7429389,
      "hash": "aef5c84c66561c51b728a389d3b93a3d09653881",
      "sri": null
    },
    {
      "path": "app/favicon.ico",
      "where": "client",
      "type": "asset",
      "cacheable": false,
      "url": "/favicon.ico",
      "size": 370070,
      "hash": "746728b3623c1fd7c2ff66400965338dba437a8f",
      "sri": null
    },
    {
      "path": "app/images/body.jpg",
      "where": "client",
      "type": "asset",
      "cacheable": false,
      "url": "/images/body.jpg",
      "size": 30018,
      "hash": "68dc385c7ef703baab91bae5f7d448afd00df0c7",
      "sri": null
    },
    {
      "path": "app/images/cape.png",
      "where": "client",
      "type": "asset",
      "cacheable": false,
      "url": "/images/cape.png",
      "size": 9746,
      "hash": "37c04e4f011f2a37a053a5a12e67c69644ebc4e9",
      "sri": null
    },
    {
      "path": "app/images/clock.png",
      "where": "client",
      "type": "asset",
      "cacheable": false,
      "url": "/images/clock.png",
      "size": 13515,
      "hash": "5a5cbd9ba0f2d7e4cdf57a160e09a132a5ebea70",
      "sri": null
    },
    {
      "path": "app/images/desert.png",
      "where": "client",
      "type": "asset",
      "cacheable": false,
      "url": "/images/desert.png",
      "size": 14542,
      "hash": "dac5f84a0e226b7a18c65e041bd72e0768d9ab20",
      "sri": null
    },
    {
      "path": "app/images/forest.png",
      "where": "client",
      "type": "asset",
      "cacheable": false,
      "url": "/images/forest.png",
      "size": 14340,
      "hash": "b2c65724b31f5d3228761c025a66a9a3d68f6a0d",
      "sri": null
    },
    {
      "path": "app/images/p1.jpg",
      "where": "client",
      "type": "asset",
      "cacheable": false,
      "url": "/images/p1.jpg",
      "size": 1260769,
      "hash": "df92d99d88893a703dc4e861b24d3b925ea76e39",
      "sri": null
    },
    {
      "path": "app/images/p2.jpg",
      "where": "client",
      "type": "asset",
      "cacheable": false,
      "url": "/images/p2.jpg",
      "size": 262192,
      "hash": "fa5da00616acf6aff7e613f7d1dd804c3618206b",
      "sri": null
    },
    {
      "path": "app/images/spruce.png",
      "where": "client",
      "type": "asset",
      "cacheable": false,
      "url": "/images/spruce.png",
      "size": 11387,
      "hash": "14e819b0164d7f8f2a3928352bbfc09bff74fea7",
      "sri": null
    },
    {
      "path": "head.html",
      "where": "internal",
      "type": "head",
      "hash": "d154a2ca1553aa0949becea4d5bf8b9b3bbc020d"
    }
  ]
}