{
  "minifier": {
    "name": "standard-minifier-js",
    "version": "2.6.0"
  },
  "totalMinifiedBytes": 818653,
  "totalMinifiedGzipBytes": 244443,
  "minifiedBytesByPackage": {
    "packages/meteor.js": 9504,
    "packages/meteor-base.js": 31,
    "packages/mobile-experience.js": 37,
    "packages/modules-runtime.js": 4269,
    "packages/modules.js": [
      115051,
      {
        "node_modules": {
          "meteor": {
            "modules": {
              "client.js": 126,
              "css.js": 263,
              "install-packages.js": 2594,
              "process.js": 349,
              "reify.js": 73,
              "stubs.js": 99,
              "node_modules": {
                "reify": {
                  "lib": {
                    "runtime": {
                      "index.js": 911,
                      "utils.js": 1222,
                      "entry.js": 3047
                    }
                  }
                }
              }
            }
          },
          "meteor-node-stubs": {
            "package.json": 87,
            "index.js": 358,
            "map.json": 1008,
            "deps": {
              "process.js": 38
            },
            "node_modules": {
              "process": {
                "browser.js": 1688
              }
            }
          },
          "@babel": {
            "runtime": {
              "package.json": 11380,
              "helpers": {
                "objectSpread2.js": 633,
                "defineProperty.js": 150
              }
            }
          },
          "jquery": {
            "package.json": 82,
            "dist": {
              "jquery.js": 90148
            }
          }
        }
      }
    ],
    "packages/modern-browsers.js": 35,
    "packages/babel-compiler.js": 34,
    "packages/ecmascript.js": 30,
    "packages/ecmascript-runtime.js": 38,
    "packages/babel-runtime.js": [
      949,
      {
        "node_modules": {
          "meteor": {
            "babel-runtime": {
              "babel-runtime.js": 631
            }
          }
        }
      }
    ],
    "packages/promise.js": [
      1339,
      {
        "node_modules": {
          "meteor": {
            "promise": {
              "modern.js": 25,
              "client.js": 73,
              "extensions.js": 403,
              "node_modules": {
                "meteor-promise": {
                  "package.json": 121,
                  "promise_client.js": 268
                }
              }
            }
          }
        }
      }
    ],
    "packages/fetch.js": [
      408,
      {
        "node_modules": {
          "meteor": {
            "fetch": {
              "modern.js": 94
            }
          }
        }
      }
    ],
    "packages/dynamic-import.js": [
      4641,
      {
        "node_modules": {
          "meteor": {
            "dynamic-import": {
              "client.js": 1574,
              "cache.js": 1952,
              "common.js": 62,
              "dynamic-versions.js": 652
            }
          }
        }
      }
    ],
    "packages/es5-shim.js": 28,
    "packages/ecmascript-runtime-client.js": [
      20886,
      {
        "node_modules": {
          "meteor": {
            "ecmascript-runtime-client": {
              "modern.js": 766,
              "node_modules": {
                "core-js": {
                  "modules": {
                    "es.object.get-own-property-descriptors.js": 414,
                    "es.object.is.js": 108,
                    "es.function.name.js": 272,
                    "es.number.is-finite.js": 120,
                    "es.number.is-nan.js": 107,
                    "es.array.flat.js": 404,
                    "es.array.flat-map.js": 401,
                    "es.object.from-entries.js": 226,
                    "es.string.pad-start.js": 256,
                    "es.string.pad-end.js": 252,
                    "es.string.trim-start.js": 267,
                    "es.string.trim-end.js": 260,
                    "es.symbol.async-iterator.js": 80
                  },
                  "internals": {
                    "export.js": 586,
                    "global.js": 220,
                    "object-get-own-property-descriptor.js": 428,
                    "descriptors.js": 145,
                    "fails.js": 76,
                    "object-property-is-enumerable.js": 178,
                    "create-property-descriptor.js": 113,
                    "to-indexed-object.js": 140,
                    "indexed-object.js": 225,
                    "classof-raw.js": 88,
                    "require-object-coercible.js": 104,
                    "to-primitive.js": 354,
                    "is-object.js": 96,
                    "has.js": 86,
                    "ie8-dom-define.js": 231,
                    "document-create-element.js": 173,
                    "hide.js": 229,
                    "object-define-property.js": 359,
                    "an-object.js": 140,
                    "redefine.js": 724,
                    "shared.js": 322,
                    "set-global.js": 137,
                    "is-pure.js": 31,
                    "function-to-string.js": 108,
                    "internal-state.js": 757,
                    "native-weak-map.js": 162,
                    "shared-key.js": 133,
                    "uid.js": 131,
                    "hidden-keys.js": 31,
                    "copy-constructor-properties.js": 279,
                    "own-keys.js": 284,
                    "get-built-in.js": 222,
                    "path.js": 53,
                    "object-get-own-property-names.js": 187,
                    "object-keys-internal.js": 306,
                    "array-includes.js": 363,
                    "to-length.js": 125,
                    "to-integer.js": 104,
                    "to-absolute-index.js": 138,
                    "enum-bug-keys.js": 138,
                    "object-get-own-property-symbols.js": 49,
                    "is-forced.js": 279,
                    "create-property.js": 226,
                    "same-value.js": 96,
                    "number-is-finite.js": 133,
                    "flatten-into-array.js": 390,
                    "is-array.js": 114,
                    "bind-context.js": 358,
                    "a-function.js": 122,
                    "to-object.js": 110,
                    "array-species-create.js": 320,
                    "well-known-symbol.js": 229,
                    "native-symbol.js": 132,
                    "iterate.js": 710,
                    "is-array-iterator-method.js": 190,
                    "iterators.js": 31,
                    "get-iterator-method.js": 204,
                    "classof.js": 389,
                    "call-with-safe-iteration-closing.js": 173,
                    "string-pad.js": 378,
                    "string-repeat.js": 291,
                    "webkit-string-pad-bug.js": 122,
                    "user-agent.js": 96,
                    "string-trim.js": 305,
                    "whitespaces.js": 107,
                    "forced-string-trim-method.js": 181,
                    "define-well-known-symbol.js": 245,
                    "wrapped-well-known-symbol.js": 56
                  }
                }
              }
            }
          }
        }
      }
    ],
    "packages/base64.js": [
      1803,
      {
        "node_modules": {
          "meteor": {
            "base64": {
              "base64.js": 1480
            }
          }
        }
      }
    ],
    "packages/ejson.js": [
      6718,
      {
        "node_modules": {
          "meteor": {
            "ejson": {
              "ejson.js": 4724,
              "stringify.js": 905,
              "utils.js": 725
            }
          }
        }
      }
    ],
    "packages/diff-sequence.js": [
      2858,
      {
        "node_modules": {
          "meteor": {
            "diff-sequence": {
              "diff.js": 2488
            }
          }
        }
      }
    ],
    "packages/geojson-utils.js": [
      5183,
      {
        "node_modules": {
          "meteor": {
            "geojson-utils": {
              "main.js": 50,
              "geojson-utils.js": 4794
            }
          }
        }
      }
    ],
    "packages/id-map.js": [
      1231,
      {
        "node_modules": {
          "meteor": {
            "id-map": {
              "id-map.js": 890
            }
          }
        }
      }
    ],
    "packages/random.js": [
      3683,
      {
        "node_modules": {
          "meteor": {
            "random": {
              "main_client.js": 305,
              "AbstractRandomGenerator.js": 649,
              "AleaRandomGenerator.js": 985,
              "BrowserRandomGenerator.js": 232,
              "createAleaGenerator.js": 669,
              "createRandom.js": 378
            }
          }
        }
      }
    ],
    "packages/mongo-id.js": [
      1725,
      {
        "node_modules": {
          "meteor": {
            "mongo-id": {
              "id.js": 1327
            }
          }
        }
      }
    ],
    "packages/ordered-dict.js": [
      2985,
      {
        "node_modules": {
          "meteor": {
            "ordered-dict": {
              "ordered_dict.js": 2625
            }
          }
        }
      }
    ],
    "packages/tracker.js": [
      4472,
      {
        "node_modules": {
          "meteor": {
            "tracker": {
              "tracker.js": 4141
            }
          }
        }
      }
    ],
    "packages/minimongo.js": [
      43440,
      {
        "node_modules": {
          "meteor": {
            "minimongo": {
              "minimongo_client.js": 50,
              "common.js": 12169,
              "cursor.js": 4590,
              "local_collection.js": 19749,
              "matcher.js": 2660,
              "minimongo_common.js": 210,
              "observe_handle.js": 54,
              "sorter.js": 3149
            }
          }
        }
      }
    ],
    "packages/check.js": [
      6100,
      {
        "node_modules": {
          "meteor": {
            "check": {
              "match.js": 5426,
              "isPlainObject.js": 310
            }
          }
        }
      }
    ],
    "packages/retry.js": [
      1046,
      {
        "node_modules": {
          "meteor": {
            "retry": {
              "retry.js": 710
            }
          }
        }
      }
    ],
    "packages/callback-hook.js": [
      1487,
      {
        "node_modules": {
          "meteor": {
            "callback-hook": {
              "hook.js": 1150
            }
          }
        }
      }
    ],
    "packages/ddp-common.js": [
      4561,
      {
        "node_modules": {
          "meteor": {
            "ddp-common": {
              "namespace.js": 18,
              "heartbeat.js": 1289,
              "utils.js": 1350,
              "method_invocation.js": 487,
              "random_stream.js": 637
            }
          }
        }
      }
    ],
    "packages/reload.js": [
      1933,
      {
        "node_modules": {
          "meteor": {
            "reload": {
              "reload.js": 1610
            }
          }
        }
      }
    ],
    "packages/socket-stream-client.js": [
      36798,
      {
        "node_modules": {
          "meteor": {
            "socket-stream-client": {
              "browser.js": 2898,
              "common.js": 2468,
              "sockjs-0.3.4.js": 30376,
              "urls.js": 696
            }
          }
        }
      }
    ],
    "packages/ddp-client.js": [
      22362,
      {
        "node_modules": {
          "meteor": {
            "ddp-client": {
              "client": {
                "client.js": 136,
                "client_convenience.js": 862
              },
              "common": {
                "MethodInvoker.js": 1146,
                "livedata_connection.js": 18501,
                "namespace.js": 927
              }
            }
          }
        }
      }
    ],
    "packages/ddp.js": 78,
    "packages/ddp-server.js": 30,
    "packages/allow-deny.js": [
      5767,
      {
        "node_modules": {
          "meteor": {
            "allow-deny": {
              "allow-deny.js": 5268
            }
          }
        }
      }
    ],
    "packages/insecure.js": 28,
    "packages/mongo.js": [
      8922,
      {
        "node_modules": {
          "meteor": {
            "mongo": {
              "local_collection_driver.js": 362,
              "collection.js": 7808
            }
          }
        }
      }
    ],
    "packages/blaze-html-templates.js": 40,
    "packages/reactive-var.js": 818,
    "packages/standard-minifier-css.js": 41,
    "packages/standard-minifier-js.js": 40,
    "packages/typescript.js": 30,
    "packages/shell-server.js": 32,
    "packages/autopublish.js": 31,
    "packages/reactive-dict.js": [
      3880,
      {
        "node_modules": {
          "meteor": {
            "reactive-dict": {
              "migration.js": 778,
              "reactive-dict.js": 2651
            }
          }
        }
      }
    ],
    "packages/session.js": [
      522,
      {
        "node_modules": {
          "meteor": {
            "session": {
              "session.js": 131
            }
          }
        }
      }
    ],
    "packages/underscore.js": 14427,
    "packages/deps.js": 111,
    "packages/jquery.js": [
      98052,
      {
        "node_modules": {
          "meteor": {
            "jquery": {
              "main.js": 136,
              "jquery.js": 97602
            }
          }
        }
      }
    ],
    "packages/observe-sequence.js": 2935,
    "packages/htmljs.js": 10030,
    "packages/blaze.js": [
      39870,
      {
        "node_modules": {
          "meteor": {
            "blaze": {
              "preamble.js": 505,
              "dombackend.js": 1766,
              "domrange.js": 6005,
              "events.js": 1960,
              "attrs.js": 4036,
              "materializer.js": 2023,
              "exceptions.js": 481,
              "view.js": 9936,
              "builtins.js": 3896,
              "lookup.js": 2522,
              "template.js": 5245,
              "backcompat.js": 246
            }
          }
        }
      }
    ],
    "packages/ui.js": 137,
    "packages/spacebars.js": 2950,
    "packages/templating-compiler.js": 39,
    "packages/templating-runtime.js": 3095,
    "packages/templating.js": 103,
    "packages/iron_core.js": 3519,
    "packages/iron_dynamic-template.js": 8538,
    "packages/iron_layout.js": 5426,
    "packages/iron_url.js": 5434,
    "packages/iron_middleware-stack.js": 4271,
    "packages/iron_location.js": 3750,
    "packages/iron_controller.js": 3855,
    "packages/iron_router.js": 19929,
    "packages/ddp-rate-limiter.js": 36,
    "packages/localstorage.js": 837,
    "packages/accounts-base.js": [
      12602,
      {
        "node_modules": {
          "meteor": {
            "accounts-base": {
              "client_main.js": 224,
              "accounts_client.js": 7775,
              "accounts_common.js": 4009
            }
          }
        }
      }
    ],
    "packages/service-configuration.js": 711,
    "packages/sha.js": 2521,
    "packages/srp.js": [
      19280,
      {
        "node_modules": {
          "meteor": {
            "srp": {
              "srp.js": 1252,
              "biginteger.js": 17620
            }
          }
        }
      }
    ],
    "packages/accounts-password.js": [
      2817,
      {
        "node_modules": {
          "meteor": {
            "accounts-password": {
              "password_client.js": 2338
            }
          }
        }
      }
    ],
    "packages/less.js": 24,
    "packages/accounts-ui-unstyled.js": [
      44006,
      {
        "node_modules": {
          "meteor": {
            "accounts-ui-unstyled": {
              "accounts_ui.js": 2293,
              "template.login_buttons.js": 4119,
              "template.login_buttons_single.js": 2295,
              "template.login_buttons_dropdown.js": 8654,
              "template.login_buttons_dialogs.js": 8274,
              "login_buttons_session.js": 1504,
              "login_buttons.js": 1691,
              "login_buttons_single.js": 1546,
              "login_buttons_dropdown.js": 7774,
              "login_buttons_dialogs.js": 4213
            }
          }
        }
      }
    ],
    "packages/accounts-ui.js": 31,
    "packages/momentjs_moment.js": 60790,
    "packages/url.js": [
      1192,
      {
        "node_modules": {
          "meteor": {
            "url": {
              "modern.js": 110,
              "bc": {
                "url_client.js": 172,
                "url_common.js": 569
              }
            }
          }
        }
      }
    ],
    "packages/http.js": [
      3430,
      {
        "node_modules": {
          "meteor": {
            "http": {
              "httpcall_client.js": 2122,
              "httpcall_common.js": 934
            }
          }
        }
      }
    ],
    "packages/ostrio_base64.js": [
      7494,
      {
        "node_modules": {
          "meteor": {
            "ostrio:base64": {
              "base64.js": 4336,
              "worker-create.js": 2810
            }
          }
        }
      }
    ],
    "packages/bigdsk_inputmask.js": 72282,
    "packages/meteorhacks_async.js": 169,
    "packages/typ_accounts-ldap.js": 714,
    "packages/webapp.js": [
      650,
      {
        "node_modules": {
          "meteor": {
            "webapp": {
              "webapp_client.js": 313
            }
          }
        }
      }
    ],
    "packages/livedata.js": 105,
    "packages/hot-code-push.js": 33,
    "packages/launch-screen.js": 795,
    "packages/autoupdate.js": [
      3475,
      {
        "node_modules": {
          "meteor": {
            "autoupdate": {
              "autoupdate_client.js": 1886,
              "client_versions.js": 1107
            }
          }
        }
      }
    ],
    "app/global-imports.js": [
      1118,
      {}
    ],
    "app/app.js": [
      30968,
      {
        "client": {
          "html": {
            "body.html": 58,
            "template.body.js": 1595,
            "login.html": 59,
            "template.login.js": 8830,
            "perfil.html": 60,
            "template.perfil.js": 4815,
            "work.html": 58,
            "template.work.js": 2101,
            "worklogger.html": 64,
            "template.worklogger.js": 1805
          },
          "js": {
            "account-config.js": 76,
            "body.js": 1389,
            "login.js": 3351,
            "perfil.js": 876,
            "work.js": 2370,
            "worklogger.js": 1603
          },
          "main.js": 209
        },
        "lib": {
          "collections": {
            "tabela.js": 199,
            "userBase.js": 205,
            "works.js": 196
          },
          "routes": {
            "routes.js": 546
          }
        }
      }
    ]
  }
}
